05.17|FinalProject-full
…
In [4]:

imdb_movies %>%
    print()

# A tibble: 85,855 x 22
   imdb_title_id title     original_title    year date_published genre  duration
   <chr>         <chr>     <chr>            <dbl> <chr>          <chr>     <dbl>
 1 tt0000009     Miss Jer Miss Jerry        1894 1894-10-09     Roman       45
 2 tt0000574     The Stor The Story of th  1906 1906-12-26     Biogr       70
 3 tt0001892     Den sort Den sorte drm    1911 1911-08-19     Drama        53
 4 tt0002101     Cleopatra Cleopatra         1912 1912-11-13     Drama      100
 5 tt0002130     L'Inferno L'Inferno         1911 1911-03-06     Adven       68
 6 tt0002199     From the From the Manger  1912 1913           Biogr       60
 7 tt0002423     Madame D Madame DuBarry    1919 1919-11-26     Biogr       85
 8 tt0002445     Quo Vadi Quo Vadis?        1913 1913-03-01     Drama      120
 9 tt0002452     Independ Independenta Ro  1912 1912-09-01     Histo      120
10 tt0002461     Richard  Richard III       1912 1912-10-15     Drama        55
#  with 85,845 more rows, and 15 more variables: country <chr>,
#   language <chr>, director <chr>, writer <chr>, production_company <chr>,
#   actors <chr>, description <chr>, avg_vote <dbl>, votes <dbl>, budget <chr>,
#   usa_gross_income <chr>, worlwide_gross_income <chr>, metascore <dbl>,
#   reviews_from_users <dbl>, reviews_from_critics <dbl>

In [5]:

imdb_names %>%
    print()

# A tibble: 297,705 x 17
   imdb_name_id name   birth_name  height bio      birth_details   date_of_birth
   <chr>        <chr>  <chr>        <dbl> <chr>    <chr>           <chr>        
 1 nm0000001    Fred  Frederic A    177 "Fred A May 10, 1899 i 1899-05-10   
 2 nm0000002    Laure Betty Joan    174 "Lauren September 16,  1924-09-16   
 3 nm0000003    Brigi Brigitte B    166 "Brigit September 28,  1934-09-28   
 4 nm0000004    John  John Adam     170 "John B January 24, 19 1949-01-24   
 5 nm0000005    Ingma Ernst Ingm    179 "Ernst  July 14, 1918  1918-07-14   
 6 nm0000006    Ingri Ingrid Ber    178 "Ingrid August 29, 191 1915-08-29   
 7 nm0000007    Humph Humphrey D    173 "Humphr December 25, 1 1899-12-25   
 8 nm0000008    Marlo Marlon Bra    175 "Marlon April 3, 1924  1924-04-03   
 9 nm0000009    Richa Richard Wa    178 "Probab November 10, 1 1925-11-10   
10 nm0000010    James James Fran    165 "One of July 17, 1899  1899-07-17   
#  with 297,695 more rows, and 10 more variables: place_of_birth <chr>,
#   death_details <chr>, date_of_death <date>, place_of_death <chr>,
#   reason_of_death <chr>, spouses_string <chr>, spouses <dbl>, divorces <dbl>,
#   spouses_with_children <dbl>, children <dbl>

In [6]:

imdb_ratings %>%
    print()

# A tibble: 85,855 x 49
   imdb_title_id weighted_average_vo total_votes mean_vote median_vote votes_10
   <chr>                        <dbl>       <dbl>     <dbl>       <dbl>    <dbl>
 1 tt0000009                      5.9         154       5.9           6       12
 2 tt0000574                      6.1         589       6.3           6       57
 3 tt0001892                      5.8         188       6             6        6
 4 tt0002101                      5.2         446       5.3           5       15
 5 tt0002130                      7          2237       6.9           7      210
 6 tt0002199                      5.7         484       5.8           6       33
 7 tt0002423                      6.8         753       6.8           7       80
 8 tt0002445                      6.2         273       6.2           6       15
 9 tt0002452                      6.7         198       7.1           7       53
10 tt0002461                      5.5         225       5.4           6        9
#  with 85,845 more rows, and 43 more variables: votes_9 <dbl>, votes_8 <dbl>,
#   votes_7 <dbl>, votes_6 <dbl>, votes_5 <dbl>, votes_4 <dbl>, votes_3 <dbl>,
#   votes_2 <dbl>, votes_1 <dbl>, allgenders_0age_avg_vote <dbl>,
#   allgenders_0age_votes <dbl>, allgenders_18age_avg_vote <dbl>,
#   allgenders_18age_votes <dbl>, allgenders_30age_avg_vote <dbl>,
#   allgenders_30age_votes <dbl>, allgenders_45age_avg_vote <dbl>,
#   allgenders_45age_votes <dbl>, males_allages_avg_vote <dbl>,
#   males_allages_votes <dbl>, males_0age_avg_vote <dbl>,
#   males_0age_votes <dbl>, males_18age_avg_vote <dbl>,
…
In [7]:

imdb_titlePrincipals %>%
    print()

# A tibble: 835,513 x 6
   imdb_title_id ordering imdb_name_id category job    characters               
   <chr>            <dbl> <chr>        <chr>    <chr>  <chr>                    
 1 tt0000009            1 nm0063086    actress  NA     "[\"Miss Geraldine Holbr
 2 tt0000009            2 nm0183823    actor    NA     "[\"Mr. Hamilton\"]"     
 3 tt0000009            3 nm1309758    actor    NA     "[\"Chauncey Depew - the
 4 tt0000009            4 nm0085156    director NA      NA                      
 5 tt0000574            1 nm0846887    actress  NA     "[\"Kate Kelly\"]"       
 6 tt0000574            2 nm0846894    actor    NA     "[\"School Master\"]"    
 7 tt0000574            3 nm3002376    actor    NA     "[\"Steve Hart\"]"       
 8 tt0000574            4 nm0170118    actress  NA      NA                      
 9 tt0000574            5 nm0846879    director NA      NA                      
10 tt0000574            6 nm0317210    producer produ  NA                      
#  with 835,503 more rows
…
In [10]:

top3_movie_production <- imdb_movies %>%
    filter(country == c("India", "UK", "USA")) %>%
    group_by(country, year) %>%
    summarize(count = n()) %>%
    na.omit %>%
    print(width = Inf)

Warning message in country == c("India", "UK", "USA"):
longer object length is not a multiple of shorter object length
`summarise()` has grouped output by 'country'. You can override using the `.groups` argument.

# A tibble: 274 x 3
# Groups:   country [3]
   country  year count
   <chr>   <dbl> <int>
 1 India    1936     1
 2 India    1948     1
 3 India    1949     1
 4 India    1951     2
 5 India    1952     4
 6 India    1953     1
 7 India    1954     1
 8 India    1955     2
 9 India    1956     1
10 India    1957     2
#  with 264 more rows
…
movieRatings_by_year <- imdb_movies %>%
    separate(date_published, into = c("year", "month", "day"), sep = "-") %>%
    group_by(year) %>%
    mutate(year = as.double(year)) %>%
    summarize(avg_rating = mean(avg_vote, na.rm = TRUE), votes = sum(votes)) %>%
    na.omit %>%
    print(width = Inf)

Warning message:
Expected 3 pieces. Missing pieces filled with `NA` in 4563 rows [6, 56, 101, 118, 145, 176, 204, 224, 227, 249, 250, 253, 259, 261, 337, 344, 373, 398, 399, 438, ...].
Warning message in mask$eval_all_mutate(quo):
NAs introduced by coercion

# A tibble: 113 x 3
    year avg_rating votes
   <dbl>      <dbl> <dbl>
 1  1894       5.9    154
 2  1906       6.1    589
 3  1911       6.14  2833
 4  1912       6.05  1174
 5  1913       6.44  9364
 6  1914       6.11 15676
 7  1915       6.4  37142
 8  1916       6.28 13079
 9  1917       6.32 12292
10  1918       6.11 31847
#  with 103 more rows
…
In [19]:

yearVbudget <- imdb_movies %>%
    separate(budget, into = c("budget_form", "budget"), sep = " ") %>%
    na.omit(budget_form) %>%
    filter(budget_form == "$") %>%
    mutate(budget = as.integer(budget)) %>%
    group_by(year) %>%
    summarize(avg_budget = mean(budget, na.rm = TRUE)) %>%
    mutate(years_since_1894 = year - 1894) %>%
    mutate(avg_budget_in_millions = avg_budget / 1000000) %>%
    print(width = Inf)

# A tibble: 80 x 4
    year avg_budget years_since_1894 avg_budget_in_millions
 * <dbl>      <dbl>            <dbl>                  <dbl>
 1  1931   1500000                37                  1.5  
 2  1936   1500000                42                  1.5  
 3  1937    779500                43                  0.780
 4  1939   2884667.               45                  2.88 
 5  1940   2440000                46                  2.44 
 6  1941    839727                47                  0.840
 7  1942    950000                48                  0.95 
 8  1946   2100000                52                  2.1  
 9  1948   3000000                54                  3    
10  1950   1516667.               56                  1.52 
#  with 70 more rows
…
